{
  "tests": [
    {"model":"lda", "training_dataset":"pan11-author-identification-training-corpus-2011-04-08/SmallTrain.xml", "testing_dataset":"pan11-author-identification-training-corpus-2011-04-08/SmallTrain.xml", "method":"svm", "num_topics":3, "num_iterations":5, "stopwords":false, "num_cv_folds":10, "verbose":false},
    {"model":"lda", "training_dataset":"pan11-author-identification-training-corpus-2011-04-08/SmallTrain.xml", "testing_dataset":"pan11-author-identification-training-corpus-2011-04-08/SmallTrain.xml", "method":"svm", "num_topics":50, "num_iterations":100, "stopwords":false, "num_cv_folds":10, "verbose":false}
  ]
}