{
  "tests": [
    {"model":"at", "training_dataset":"tokenised.txt", "testing_dataset":"tokenised.txt", "parser":"judgement", "method":"svm", "num_topics":25, "num_iterations":1, "stopwords":false, "num_cv_folds":10, "verbose":false},
    {"model":"at", "training_dataset":"tokenised.txt", "testing_dataset":"tokenised.txt", "parser":"judgement", "method":"svm", "num_topics":50, "num_iterations":1, "stopwords":false, "num_cv_folds":10, "verbose":false},
    {"model":"at", "training_dataset":"tokenised.txt", "testing_dataset":"tokenised.txt", "parser":"judgement", "method":"svm", "num_topics":100, "num_iterations":1, "stopwords":false, "num_cv_folds":10, "verbose":false},
    {"model":"at", "training_dataset":"tokenised.txt", "testing_dataset":"tokenised.txt", "parser":"judgement", "method":"p", "num_topics":25, "num_iterations":1, "stopwords":false, "num_cv_folds":10, "verbose":false},
    {"model":"at", "training_dataset":"tokenised.txt", "testing_dataset":"tokenised.txt", "parser":"judgement", "method":"p", "num_topics":50, "num_iterations":1, "stopwords":false, "num_cv_folds":10, "verbose":false},
    {"model":"at", "training_dataset":"tokenised.txt", "testing_dataset":"tokenised.txt", "parser":"judgement", "method":"p", "num_topics":100, "num_iterations":1, "stopwords":false, "num_cv_folds":10, "verbose":false},
    {"model":"token_frequency", "training_dataset":"tokenised.txt", "testing_dataset":"tokenised.txt", "parser":"judgement", "method":"svm", "stopwords":false, "num_topics":100, "num_iterations":1, "num_cv_folds":10, "verbose":false}
  ]
}
