{
  "tests": [
    {"model":"token_frequency", "dataset":"SmallTrain.xml", "method":"svm", "stopwords":true, "num_cv_folds":10, "verbose":false},
    {"model":"token_frequency", "dataset":"SmallTrain.xml", "method":"svm", "stopwords":false, "num_cv_folds":10, "verbose":false}
  ]
}